SystemC_Lab_Files/ex_1a/traces.vcd
$date
     Oct 23, 2024       20:48:15
$end

$version
 SystemC 2.3.3-Accellera --- Oct 16 2024 21:24:39
$end

$timescale
     1 us
$end

$scope module SystemC $end
$var wire   16  aaaaa  data_amount [15:0]  $end
$var wire    1  aaaab  disc_packet       $end
$var wire   32  aaaac  counter [31:0]  $end
$upscope $end
$enddefinitions  $end

$comment
All initial values are dumped below at time 0 sec = 0 timescale units.
$end

$dumpvars
b0 aaaaa
0aaaab
b0 aaaac
$end

#3
b1010100101 aaaaa
b1010100101 aaaac

#9
b10110110110 aaaaa
1aaaab
b111110001 aaaac

#32
b1100111 aaaaa
0aaaab
b1100111 aaaac

#58
b10001010010 aaaaa
b10001010010 aaaac

#89
b10110111001 aaaaa
1aaaab
b10110000 aaaac

#117
b1110100 aaaaa
0aaaab
b1110100 aaaac

#144
b100010011 aaaaa
b100010011 aaaac

#176
b11110001 aaaaa
b11110001 aaaac

